WRA_NOCORE/V3/.Xil/Vivado-240-GENGLONGFEI/hw_ila_data_1/zip_work/waveform.vcd
$date
        2019-Oct-22 19:22:19
$end
$version
        Vivado v2019.1 (64-bit)
$end
$timescale
        1ps
$end
$scope module dut $end
$var reg 8 " gray1 [7:0] $end
$var reg 1 * frame4_flag $end
$var reg 1 + _TRIGGER $end
$var reg 1 , _WINDOW $end
$var reg 1 - _GAP $end
$upscope $end
$enddefinitions $end
#0
$dumpvars
b0 "
1*
1+
1,
0-
$end
#2
b1000111 "
#3
b1000110 "
#4
b1001010 "
#6
b1001000 "
#7
b1001010 "
#9
b1001011 "
#10
b1001010 "
#13
b1001011 "
#14
b1001010 "
#16
b1001011 "
#17
b1001010 "
#18
b1001011 "
#19
b1001110 "
#20
b1000100 "
#21
b1001100 "
#22
b1001011 "
#23
b1001100 "
#24
b1000100 "
#25
b1001111 "
#26
b1001110 "
#27
b1001100 "
#28
b1010000 "
#29
b1001101 "
#30
b1001000 "
#31
b1000110 "
#32
b1001000 "
#33
b1000111 "
#35
b1001000 "
#36
b1001001 "
#37
b1001000 "
#38
b1001010 "
#39
b1001011 "
#40
b1001010 "
#41
b1001011 "
#42
b1001010 "
#43
b1001011 "
#45
b1010100 "
#46
b1001100 "
#48
b1010101 "
#49
b1001100 "
#50
b1001011 "
#52
b1010110 "
#53
b1001100 "
#55
b1001101 "
#56
b1001110 "
#58
b1000011 "
#59
b1000101 "
#60
b1001001 "
#61
b1000111 "
#62
b1001000 "
#64
b1000111 "
#65
b1001001 "
#67
b1001000 "
#68
b1001011 "
#73
b1010010 "
#74
b1001100 "
#75
b1000111 "
#76
b1001001 "
#77
b1000111 "
#78
b1010000 "
#79
b1001100 "
#80
b1001011 "
#81
b1010011 "
#82
b1001000 "
#83
b1010101 "
#84
b1010010 "
#85
b1001101 "
#86
b111110 "
#87
b1010011 "
#88
b1001001 "
#89
b1001000 "
#92
b1001011 "
#93
b1001000 "
#95
b1001100 "
#96
b1001010 "
#98
b1001000 "
#99
b1001110 "
#100
b1001100 "
#101
b1001110 "
#102
b1001100 "
#103
b1010111 "
#104
b111001 "
#105
b111010 "
#106
b10010 "
#107
b10011 "
#108
b1001111 "
#109
b1001000 "
#110
b1000010 "
#111
b1001110 "
#112
b1001000 "
#113
b1010011 "
#114
b1001000 "
#117
b1001010 "
#118
b1001000 "
#120
b1001010 "
#121
b1001000 "
#122
b1001010 "
#123
b1001011 "
#125
b1001000 "
#126
b1001010 "
#128
b1001011 "
#130
b1001100 "
#131
b1000111 "
#132
b10100 "
#133
b101 "
#134
b111 "
#135
b1010 "
#136
b1000111 "
#137
b1001010 "
#138
b1000011 "
#139
b1000100 "
#140
b1001101 "
#141
b1001110 "
#142
b1001001 "
#143
b1001000 "
#144
b1001011 "
#146
b1001010 "
#148
b1001000 "
#149
b1001010 "
#150
b1001011 "
#153
b1001010 "
#155
b1001100 "
#156
b1001010 "
#157
b1001100 "
#158
b1001011 "
#159
b10110 "
#160
b1000 "
#161
b111 "
#164
b110011 "
#165
b1001101 "
#166
b1010110 "
#168
b1001100 "
#169
b1001110 "
#170
b1001010 "
#171
b1001001 "
#172
b1001010 "
#173
b1001000 "
#175
b1001010 "
#177
b1001000 "
#179
b1001010 "
#181
b1001011 "
#182
b1001100 "
#183
b1001010 "
#184
b1001100 "
#185
b1000011 "
#187
b10111 "
#188
b1001 "
#189
b10000 "
#190
b1001 "
#191
b111 "
#192
b10110 "
#193
b1001110 "
#195
b1010101 "
#196
b1001100 "
#197
b1010101 "
#198
b1001000 "
#199
b1000111 "
#200
b1001000 "
#201
b1000111 "
#202
b1001000 "
#204
b1001010 "
#206
b1001000 "
#207
b1001001 "
#208
b1001011 "
#209
b1001010 "
#210
b1001100 "
#214
b1001011 "
#215
b11010 "
#216
b101101 "
#217
b1000111 "
#218
b110001 "
#219
b111 "
#221
b1001011 "
#222
b1001110 "
#223
b1010101 "
#224
b1001101 "
#225
b1001110 "
#226
b1000101 "
#227
b1001000 "
#228
b1001010 "
#229
b1001000 "
#230
b1001010 "
#231
b1001000 "
#232
b1001010 "
#233
b1001000 "
#234
b1001010 "
#235
b1001011 "
#236
b1001010 "
#237
b1001011 "
#238
b1001100 "
#239
b1001000 "
#240
b1001011 "
#241
b1001010 "
#243
b101011 "
#244
b1000011 "
#245
b1001011 "
#247
b110 "
#248
b1000 "
#249
b1000111 "
#250
b1010100 "
#251
b1001110 "
#252
b1000111 "
#253
b1010001 "
#254
b1000111 "
#255
b1001010 "
#256
b1001001 "
#258
b1001000 "
#259
b1000110 "
#260
b1001010 "
#261
b1010010 "
#262
b1001000 "
#263
b1001100 "
#264
b1001011 "
#266
b1001010 "
#267
b1001100 "
#268
b1001011 "
#269
b1001100 "
#271
b1001000 "
#272
b1001100 "
#273
b1001101 "
#274
b1001100 "
#275
b1000 "
#276
b101 "
#277
b1001010 "
#278
b1000101 "
#280
b1001101 "
#281
b1010110 "
#282
b1001000 "
#283
b1000111 "
#284
b1001001 "
#285
b1000111 "
#286
b1001000 "
#287
b1001001 "
#288
b1001010 "
#292
b1010110 "
#293
b1001011 "
#294
b1001100 "
#295
b1001011 "
#296
b1001100 "
#297
b1001101 "
#298
b1001100 "
#299
b1001011 "
#301
b1001101 "
#302
b1001100 "
#303
b1111 "
#304
b101 "
#305
b1000011 "
#306
b1001101 "
#307
b1010101 "
#308
b1001110 "
#310
b1000111 "
#311
b1001000 "
#312
b1001010 "
#313
b1001000 "
#317
b1001011 "
#319
b1001010 "
#321
b1001100 "
#322
b1001001 "
#323
b1000011 "
#324
b1001011 "
#327
b1000011 "
#328
b1001011 "
#329
b1001101 "
#330
b1000100 "
#331
b111 "
#332
b100 "
#333
b1001010 "
#334
b1001110 "
#335
b1010101 "
#336
b1010110 "
#337
b1001110 "
#338
b1000011 "
#339
b1001001 "
#340
b1001010 "
#341
b1000111 "
#342
b1001001 "
#344
b1001010 "
#345
b1001000 "
#346
b1001010 "
#349
b1001011 "
#350
b1001010 "
#352
b1010001 "
#353
b1000101 "
#354
b1001011 "
#358
b1001010 "
#359
b111 "
#361
b1001010 "
#362
b1001100 "
#363
b1001011 "
#364
b1001100 "
#365
b1010010 "
#366
b1001000 "
#367
b1000111 "
#369
b1001010 "
#371
b1001001 "
#372
b1010010 "
#373
b1000111 "
#374
b1001010 "
#375
b1001100 "
#376
b1001011 "
#377
b1010100 "
#378
b1001011 "
#380
b1001010 "
#382
b1010100 "
#383
b1001100 "
#384
b100100 "
#385
b1010100 "
#386
b101000 "
#387
b101 "
#388
b110100 "
#389
b1010101 "
#390
b1001101 "
#391
b1000100 "
#392
b1010110 "
#393
b1001110 "
#394
b1000110 "
#395
b1001000 "
#397
b1001010 "
#398
b1000110 "
#399
b1001001 "
#400
b1001000 "
#401
b1001001 "
#402
b1001011 "
#403
b1001010 "
#404
b1001000 "
#405
b1001011 "
#409
b1010110 "
#410
b1010010 "
#411
b1000111 "
#412
b1001011 "
#414
b1010 "
#415
b101 "
#416
b110011 "
#417
b1010010 "
#418
b1010001 "
#420
b1001111 "
#421
b1010001 "
#422
b1000011 "
#423
b1001010 "
#425
b1000111 "
#426
b1001010 "
#427
b1001001 "
#428
b1001010 "
#430
b1001011 "
#431
b1001001 "
#432
b1001000 "
#433
b1001011 "
#434
b1001010 "
#436
b1001100 "
#437
b1001010 "
#438
b1001011 "
#439
b1001100 "
#440
b1001011 "
#441
b1011110 "
#442
b1 "
#443
b101 "
#444
b100011 "
#445
b1001111 "
#446
b1010010 "
#447
b1010001 "
#448
b1001001 "
#449
b1001100 "
#450
b1000111 "
#451
b1001010 "
#452
b1001000 "
#454
b1001011 "
#455
b1001000 "
#456
b1001010 "
#457
b1001001 "
#458
b1001010 "
#464
b1001001 "
#465
b1001100 "
#466
b1000011 "
#467
b1001100 "
#468
b1001011 "
#469
b10 "
#470
b101 "
#471
b10101 "
#472
b1001011 "
#473
b1001100 "
#475
b1001110 "
#476
b1001100 "
#477
b1001111 "
#478
b1000111 "
#479
b1001010 "
#482
b1001000 "
#483
b1001010 "
#485
b1001011 "
#486
b1001010 "
#490
b1001011 "
#491
b1001010 "
#493
b1001011 "
#494
b1001100 "
#495
b1000100 "
#496
b110110 "
#497
b1000 "
#498
b111 "
#499
b1000100 "
#500
b1001101 "
#501
b1000011 "
#502
b1001110 "
#503
b1001100 "
#504
b1001110 "
#505
b1000100 "
#506
b1001000 "
#507
b1001011 "
#508
b1001010 "
#511
b1000111 "
#512
b1001001 "
#513
b1001010 "
#514
b1001100 "
#515
b1001011 "
#516
b1001010 "
#518
b1001011 "
#519
b1010011 "
#520
b1001011 "
#523
b1001100 "
#524
b10011 "
#525
b101 "
#526
b10101 "
#527
b1000100 "
#528
b1001011 "
#529
b1000011 "
#530
b1001101 "
#531
b1000101 "
#532
b1001011 "
#533
b1010110 "
#534
b1000110 "
#535
b1001011 "
#537
b1001000 "
#538
b1001001 "
#540
b1001010 "
#543
b1001100 "
#544
b1001001 "
#545
b1001010 "
#546
b1001011 "
#547
b1010100 "
#548
b1001011 "
#549
b1010101 "
#550
b1010100 "
#551
b1001011 "
#552
b10010 "
#553
b111 "
#554
b1000100 "
#555
b1000101 "
#556
b1001011 "
#557
b1000011 "
#558
b1001111 "
#559
b1000111 "
#560
b1001010 "
#561
b1010010 "
#562
b1000011 "
#563
b1001011 "
#564
b1001001 "
#567
b1001011 "
#568
b1001010 "
#570
b1001011 "
#571
b1001010 "
#572
b1001011 "
#573
b1001100 "
#574
b1001011 "
#575
b1001100 "
#576
b1011110 "
#577
b1001100 "
#578
b1011101 "
#579
b1100001 "
#580
b1111 "
#581
b111 "
#582
b100011 "
#583
b1010011 "
#584
b1000101 "
#585
b1010100 "
#586
b1000101 "
#587
b1010101 "
#588
b1001110 "
#590
b1000100 "
#591
b1000111 "
#592
b1000100 "
#593
b1001010 "
#594
b1001001 "
#595
b1001011 "
#597
b1001010 "
#600
b1001011 "
#605
b1010101 "
#606
b1001001 "
#607
b100000 "
#608
b1011 "
#609
b110110 "
#610
b111101 "
#611
b1001001 "
#612
b1001000 "
#613
b1001011 "
#614
b1001000 "
#615
b1001110 "
#617
b1001111 "
#618
b1000010 "
#619
b1001011 "
#620
b1001010 "
#621
b1001011 "
#622
b1001010 "
#624
b1001011 "
#625
b1001010 "
#626
b1001011 "
#628
b1001010 "
#629
b1001011 "
#631
b1001100 "
#632
b1100011 "
#633
b1001001 "
#634
b1000100 "
#635
b110111 "
#636
b11010 "
#637
b11101 "
#638
b100100 "
#639
b100011 "
#640
b110111 "
#641
b100000 "
#642
b1000100 "
#643
b1001110 "
#644
b1001101 "
#645
b1001111 "
#646
b1000101 "
#647
b1001010 "
#648
b1001011 "
#649
b1001001 "
#651
b1001010 "
#653
b1001001 "
#654
b1001010 "
#655
b1001000 "
#656
b1000101 "
#657
b1001011 "
#658
b1001010 "
#659
b1000111 "
#660
b1001000 "
#661
b1001011 "
#662
b1001010 "
#663
b110001 "
#664
b1000 "
#665
b110 "
#666
b1001 "
#667
b111 "
#668
b1010 "
#669
b11011 "
#670
b1001100 "
#671
b1010011 "
#672
b1001110 "
#674
b1001000 "
#675
b1001001 "
#676
b1001010 "
#677
b1001011 "
#679
b1001010 "
#680
b1001001 "
#681
b1001010 "
#682
b1010100 "
#683
b1001011 "
#685
b1001000 "
#686
b1000001 "
#687
b1001011 "
#689
b1001100 "
#690
b1001110 "
#691
b100 "
#692
b110 "
#693
b111 "
#696
b110 "
#697
b1001001 "
#698
b1001101 "
#701
b1001100 "
#702
b1000111 "
#703
b1001001 "
#704
b1001000 "
#705
b1001010 "
#706
b1001011 "
#707
b1001010 "
#708
b1001011 "
#709
b1001010 "
#710
b1001011 "
#712
b1001010 "
#713
b1001001 "
#714
b1000111 "
#715
b1010101 "
#716
b1001100 "
#717
b1001011 "
#718
b1001111 "
#719
b10 "
#720
b111 "
#724
b1111 "
#725
b1000100 "
#726
b1010000 "
#727
b1010010 "
#728
b1001101 "
#729
b1001111 "
#730
b1010010 "
#731
b1001010 "
#734
b1001000 "
#735
b1001010 "
#736
b1001100 "
#737
b1001011 "
#738
b1001010 "
#739
b1001001 "
#740
b1001010 "
#742
b1001100 "
#743
b1010011 "
#744
b1010100 "
#745
b1010001 "
#746
b1000111 "
#747
b110000 "
#748
b101000 "
#749
b110000 "
#750
b111010 "
#751
b111001 "
#752
b1001101 "
#753
b1010001 "
#754
b1000110 "
#755
b1001101 "
#756
b1001110 "
#758
b1010011 "
#759
b1001010 "
#760
b1001011 "
#761
b1001010 "
#763
b1001100 "
#764
b1000110 "
#765
b1001010 "
#766
b1001011 "
#767
b1001010 "
#768
b1001011 "
#771
b1010100 "
#773
b1000011 "
#774
b1001110 "
#775
b1001011 "
#776
b1010011 "
#777
b1001011 "
#778
b1010100 "
#779
b1001011 "
#780
b1001010 "
#781
b1001011 "
#782
b1001100 "
#783
b1001011 "
#784
b1000011 "
#785
b1010110 "
